[gd_scene load_steps=3 format=2]

[ext_resource path="res://Assets/Fonts/montserrat_48.tres" type="DynamicFont" id=1]
[ext_resource path="res://game/return_to_title.gd" type="Script" id=2]

[node name="NewGame" type="Control"]
anchor_right = 1.0
anchor_bottom = 1.0
script = ExtResource( 2 )
__meta__ = {
"_edit_use_anchors_": false
}

[node name="CenterContainer" type="CenterContainer" parent="."]
anchor_right = 1.0
anchor_bottom = 1.0

[node name="VBoxContainer" type="VBoxContainer" parent="CenterContainer"]
margin_left = 464.0
margin_top = 305.0
margin_right = 815.0
margin_bottom = 415.0

[node name="Label" type="Label" parent="CenterContainer/VBoxContainer"]
margin_right = 351.0
margin_bottom = 50.0
custom_fonts/font = ExtResource( 1 )
custom_colors/font_color_shadow = Color( 1, 0.592157, 0, 1 )
custom_constants/shadow_offset_x = 0
custom_constants/shadow_offset_y = 5
text = "New Game Scene"
percent_visible = -0.0833333

[node name="Button" type="Button" parent="CenterContainer/VBoxContainer"]
margin_top = 54.0
margin_right = 351.0
margin_bottom = 110.0
custom_fonts/font = ExtResource( 1 )
text = "Back"
[connection signal="pressed" from="CenterContainer/VBoxContainer/Button" to="." method="_on_Button_pressed"]
